// Jest Snapshot v1, https://goo.gl/fbAQLP

exports[`renders 1`] = `
<DocumentFragment>
  <div
    class="container"
  >
    <form>
      <h1
        style="text-align: center;"
      >
        Add Article
      </h1>
      <br />
      <label
        for="input-title"
        style="display: block; margin-top: 0.5rem; color: rgb(51, 51, 51);"
      >
        Title*
      </label>
      <input
        id="input-title"
        name="title"
        type="text"
        value=""
      />
      <label
        for="input-description"
        style="display: block; margin-top: 0.5rem; color: rgb(51, 51, 51);"
      >
        Description*
      </label>
      <input
        id="input-description"
        name="description"
        type="text"
        value=""
      />
      <label
        for="input-body"
        style="display: block; margin-top: 0.5rem; color: rgb(51, 51, 51);"
      >
        Body*
      </label>
      <textarea
        id="input-body"
        style="visibility: hidden;"
      />
      <br />
      <button
        class="btn btn-dark btn-block"
        type="submit"
      >
        Submit
      </button>
    </form>
  </div>
</DocumentFragment>
`;
