// Jest Snapshot v1, https://goo.gl/fbAQLP

exports[`when authenticated renders 1`] = `
<DocumentFragment>
  <nav
    aria-label="main navigation"
    class="navbar"
    role="navigation"
  >
    <ul>
      <li>
        <a
          data-testid="nav-title"
          href="/"
          style="font-weight: bold;"
        >
          Marko Miric
        </a>
      </li>
      <li>
        <a
          data-testid="nav-about"
          href="/about"
        >
          About
        </a>
      </li>
      <li
        style="margin-left: auto; padding: 0px 1rem; cursor: pointer;"
      >
        <span
          data-testid="nav-logout"
        >
          Log Out
        </span>
      </li>
    </ul>
  </nav>
</DocumentFragment>
`;

exports[`when unauthenticated renders 1`] = `
<DocumentFragment>
  <nav
    aria-label="main navigation"
    class="navbar"
    role="navigation"
  >
    <ul>
      <li>
        <a
          data-testid="nav-title"
          href="/"
          style="font-weight: bold;"
        >
          Marko Miric
        </a>
      </li>
      <li>
        <a
          data-testid="nav-about"
          href="/about"
        >
          About
        </a>
      </li>
    </ul>
  </nav>
</DocumentFragment>
`;
